cp4-processor/processor/Components/Wave_32_mux.vcd
$date
	Mon Jan 22 22:10:09 2024
$end
$version
	Icarus Verilog
$end
$timescale
	100ps
$end
$scope module mux_32_tb $end
$var wire 5 ! select [4:0] $end
$var wire 32 " out [31:0] $end
$var integer 32 # i [31:0] $end
$scope module tb_mux_32 $end
$var wire 32 $ in0 [31:0] $end
$var wire 32 % in1 [31:0] $end
$var wire 32 & in10 [31:0] $end
$var wire 32 ' in11 [31:0] $end
$var wire 32 ( in12 [31:0] $end
$var wire 32 ) in13 [31:0] $end
$var wire 32 * in14 [31:0] $end
$var wire 32 + in15 [31:0] $end
$var wire 32 , in16 [31:0] $end
$var wire 32 - in17 [31:0] $end
$var wire 32 . in18 [31:0] $end
$var wire 32 / in19 [31:0] $end
$var wire 32 0 in2 [31:0] $end
$var wire 32 1 in20 [31:0] $end
$var wire 32 2 in21 [31:0] $end
$var wire 32 3 in22 [31:0] $end
$var wire 32 4 in23 [31:0] $end
$var wire 32 5 in24 [31:0] $end
$var wire 32 6 in25 [31:0] $end
$var wire 32 7 in26 [31:0] $end
$var wire 32 8 in27 [31:0] $end
$var wire 32 9 in28 [31:0] $end
$var wire 32 : in29 [31:0] $end
$var wire 32 ; in3 [31:0] $end
$var wire 32 < in30 [31:0] $end
$var wire 32 = in31 [31:0] $end
$var wire 32 > in4 [31:0] $end
$var wire 32 ? in5 [31:0] $end
$var wire 32 @ in6 [31:0] $end
$var wire 32 A in7 [31:0] $end
$var wire 32 B in8 [31:0] $end
$var wire 32 C in9 [31:0] $end
$var wire 5 D select [4:0] $end
$var wire 32 E w4 [31:0] $end
$var wire 32 F w3 [31:0] $end
$var wire 32 G w2 [31:0] $end
$var wire 32 H w1 [31:0] $end
$var wire 32 I out [31:0] $end
$scope module first_four $end
$var wire 32 J in0 [31:0] $end
$var wire 32 K in1 [31:0] $end
$var wire 32 L in2 [31:0] $end
$var wire 32 M in3 [31:0] $end
$var wire 32 N in4 [31:0] $end
$var wire 32 O in5 [31:0] $end
$var wire 32 P in6 [31:0] $end
$var wire 32 Q in7 [31:0] $end
$var wire 3 R select [2:0] $end
$var wire 32 S w2 [31:0] $end
$var wire 32 T w1 [31:0] $end
$var wire 32 U out [31:0] $end
$scope module first_bottom $end
$var wire 32 V in0 [31:0] $end
$var wire 32 W in1 [31:0] $end
$var wire 32 X in2 [31:0] $end
$var wire 32 Y in3 [31:0] $end
$var wire 2 Z select [1:0] $end
$var wire 32 [ w2 [31:0] $end
$var wire 32 \ w1 [31:0] $end
$var wire 32 ] out [31:0] $end
$scope module first_bottom $end
$var wire 32 ^ in0 [31:0] $end
$var wire 32 _ in1 [31:0] $end
$var wire 1 ` select $end
$var wire 32 a out [31:0] $end
$upscope $end
$scope module first_top $end
$var wire 32 b in0 [31:0] $end
$var wire 32 c in1 [31:0] $end
$var wire 1 d select $end
$var wire 32 e out [31:0] $end
$upscope $end
$scope module second $end
$var wire 32 f in0 [31:0] $end
$var wire 32 g in1 [31:0] $end
$var wire 1 h select $end
$var wire 32 i out [31:0] $end
$upscope $end
$upscope $end
$scope module first_top $end
$var wire 32 j in0 [31:0] $end
$var wire 32 k in1 [31:0] $end
$var wire 32 l in2 [31:0] $end
$var wire 32 m in3 [31:0] $end
$var wire 2 n select [1:0] $end
$var wire 32 o w2 [31:0] $end
$var wire 32 p w1 [31:0] $end
$var wire 32 q out [31:0] $end
$scope module first_bottom $end
$var wire 32 r in0 [31:0] $end
$var wire 32 s in1 [31:0] $end
$var wire 1 t select $end
$var wire 32 u out [31:0] $end
$upscope $end
$scope module first_top $end
$var wire 32 v in0 [31:0] $end
$var wire 32 w in1 [31:0] $end
$var wire 1 x select $end
$var wire 32 y out [31:0] $end
$upscope $end
$scope module second $end
$var wire 32 z in0 [31:0] $end
$var wire 32 { in1 [31:0] $end
$var wire 1 | select $end
$var wire 32 } out [31:0] $end
$upscope $end
$upscope $end
$scope module second $end
$var wire 32 ~ in0 [31:0] $end
$var wire 32 !" in1 [31:0] $end
$var wire 1 "" select $end
$var wire 32 #" out [31:0] $end
$upscope $end
$upscope $end
$scope module first_one $end
$var wire 32 $" in0 [31:0] $end
$var wire 32 %" in1 [31:0] $end
$var wire 32 &" in2 [31:0] $end
$var wire 32 '" in3 [31:0] $end
$var wire 32 (" in4 [31:0] $end
$var wire 32 )" in5 [31:0] $end
$var wire 32 *" in6 [31:0] $end
$var wire 32 +" in7 [31:0] $end
$var wire 3 ," select [2:0] $end
$var wire 32 -" w2 [31:0] $end
$var wire 32 ." w1 [31:0] $end
$var wire 32 /" out [31:0] $end
$scope module first_bottom $end
$var wire 32 0" in0 [31:0] $end
$var wire 32 1" in1 [31:0] $end
$var wire 32 2" in2 [31:0] $end
$var wire 32 3" in3 [31:0] $end
$var wire 2 4" select [1:0] $end
$var wire 32 5" w2 [31:0] $end
$var wire 32 6" w1 [31:0] $end
$var wire 32 7" out [31:0] $end
$scope module first_bottom $end
$var wire 32 8" in0 [31:0] $end
$var wire 32 9" in1 [31:0] $end
$var wire 1 :" select $end
$var wire 32 ;" out [31:0] $end
$upscope $end
$scope module first_top $end
$var wire 32 <" in0 [31:0] $end
$var wire 32 =" in1 [31:0] $end
$var wire 1 >" select $end
$var wire 32 ?" out [31:0] $end
$upscope $end
$scope module second $end
$var wire 32 @" in0 [31:0] $end
$var wire 32 A" in1 [31:0] $end
$var wire 1 B" select $end
$var wire 32 C" out [31:0] $end
$upscope $end
$upscope $end
$scope module first_top $end
$var wire 32 D" in0 [31:0] $end
$var wire 32 E" in1 [31:0] $end
$var wire 32 F" in2 [31:0] $end
$var wire 32 G" in3 [31:0] $end
$var wire 2 H" select [1:0] $end
$var wire 32 I" w2 [31:0] $end
$var wire 32 J" w1 [31:0] $end
$var wire 32 K" out [31:0] $end
$scope module first_bottom $end
$var wire 32 L" in0 [31:0] $end
$var wire 32 M" in1 [31:0] $end
$var wire 1 N" select $end
$var wire 32 O" out [31:0] $end
$upscope $end
$scope module first_top $end
$var wire 32 P" in0 [31:0] $end
$var wire 32 Q" in1 [31:0] $end
$var wire 1 R" select $end
$var wire 32 S" out [31:0] $end
$upscope $end
$scope module second $end
$var wire 32 T" in0 [31:0] $end
$var wire 32 U" in1 [31:0] $end
$var wire 1 V" select $end
$var wire 32 W" out [31:0] $end
$upscope $end
$upscope $end
$scope module second $end
$var wire 32 X" in0 [31:0] $end
$var wire 32 Y" in1 [31:0] $end
$var wire 1 Z" select $end
$var wire 32 [" out [31:0] $end
$upscope $end
$upscope $end
$scope module first_three $end
$var wire 32 \" in0 [31:0] $end
$var wire 32 ]" in1 [31:0] $end
$var wire 32 ^" in2 [31:0] $end
$var wire 32 _" in3 [31:0] $end
$var wire 32 `" in4 [31:0] $end
$var wire 32 a" in5 [31:0] $end
$var wire 32 b" in6 [31:0] $end
$var wire 32 c" in7 [31:0] $end
$var wire 3 d" select [2:0] $end
$var wire 32 e" w2 [31:0] $end
$var wire 32 f" w1 [31:0] $end
$var wire 32 g" out [31:0] $end
$scope module first_bottom $end
$var wire 32 h" in0 [31:0] $end
$var wire 32 i" in1 [31:0] $end
$var wire 32 j" in2 [31:0] $end
$var wire 32 k" in3 [31:0] $end
$var wire 2 l" select [1:0] $end
$var wire 32 m" w2 [31:0] $end
$var wire 32 n" w1 [31:0] $end
$var wire 32 o" out [31:0] $end
$scope module first_bottom $end
$var wire 32 p" in0 [31:0] $end
$var wire 32 q" in1 [31:0] $end
$var wire 1 r" select $end
$var wire 32 s" out [31:0] $end
$upscope $end
$scope module first_top $end
$var wire 32 t" in0 [31:0] $end
$var wire 32 u" in1 [31:0] $end
$var wire 1 v" select $end
$var wire 32 w" out [31:0] $end
$upscope $end
$scope module second $end
$var wire 32 x" in0 [31:0] $end
$var wire 32 y" in1 [31:0] $end
$var wire 1 z" select $end
$var wire 32 {" out [31:0] $end
$upscope $end
$upscope $end
$scope module first_top $end
$var wire 32 |" in0 [31:0] $end
$var wire 32 }" in1 [31:0] $end
$var wire 32 ~" in2 [31:0] $end
$var wire 32 !# in3 [31:0] $end
$var wire 2 "# select [1:0] $end
$var wire 32 ## w2 [31:0] $end
$var wire 32 $# w1 [31:0] $end
$var wire 32 %# out [31:0] $end
$scope module first_bottom $end
$var wire 32 &# in0 [31:0] $end
$var wire 32 '# in1 [31:0] $end
$var wire 1 (# select $end
$var wire 32 )# out [31:0] $end
$upscope $end
$scope module first_top $end
$var wire 32 *# in0 [31:0] $end
$var wire 32 +# in1 [31:0] $end
$var wire 1 ,# select $end
$var wire 32 -# out [31:0] $end
$upscope $end
$scope module second $end
$var wire 32 .# in0 [31:0] $end
$var wire 32 /# in1 [31:0] $end
$var wire 1 0# select $end
$var wire 32 1# out [31:0] $end
$upscope $end
$upscope $end
$scope module second $end
$var wire 32 2# in0 [31:0] $end
$var wire 32 3# in1 [31:0] $end
$var wire 1 4# select $end
$var wire 32 5# out [31:0] $end
$upscope $end
$upscope $end
$scope module first_two $end
$var wire 32 6# in0 [31:0] $end
$var wire 32 7# in1 [31:0] $end
$var wire 32 8# in2 [31:0] $end
$var wire 32 9# in3 [31:0] $end
$var wire 32 :# in4 [31:0] $end
$var wire 32 ;# in5 [31:0] $end
$var wire 32 <# in6 [31:0] $end
$var wire 32 =# in7 [31:0] $end
$var wire 3 ># select [2:0] $end
$var wire 32 ?# w2 [31:0] $end
$var wire 32 @# w1 [31:0] $end
$var wire 32 A# out [31:0] $end
$scope module first_bottom $end
$var wire 32 B# in0 [31:0] $end
$var wire 32 C# in1 [31:0] $end
$var wire 32 D# in2 [31:0] $end
$var wire 32 E# in3 [31:0] $end
$var wire 2 F# select [1:0] $end
$var wire 32 G# w2 [31:0] $end
$var wire 32 H# w1 [31:0] $end
$var wire 32 I# out [31:0] $end
$scope module first_bottom $end
$var wire 32 J# in0 [31:0] $end
$var wire 32 K# in1 [31:0] $end
$var wire 1 L# select $end
$var wire 32 M# out [31:0] $end
$upscope $end
$scope module first_top $end
$var wire 32 N# in0 [31:0] $end
$var wire 32 O# in1 [31:0] $end
$var wire 1 P# select $end
$var wire 32 Q# out [31:0] $end
$upscope $end
$scope module second $end
$var wire 32 R# in0 [31:0] $end
$var wire 32 S# in1 [31:0] $end
$var wire 1 T# select $end
$var wire 32 U# out [31:0] $end
$upscope $end
$upscope $end
$scope module first_top $end
$var wire 32 V# in0 [31:0] $end
$var wire 32 W# in1 [31:0] $end
$var wire 32 X# in2 [31:0] $end
$var wire 32 Y# in3 [31:0] $end
$var wire 2 Z# select [1:0] $end
$var wire 32 [# w2 [31:0] $end
$var wire 32 \# w1 [31:0] $end
$var wire 32 ]# out [31:0] $end
$scope module first_bottom $end
$var wire 32 ^# in0 [31:0] $end
$var wire 32 _# in1 [31:0] $end
$var wire 1 `# select $end
$var wire 32 a# out [31:0] $end
$upscope $end
$scope module first_top $end
$var wire 32 b# in0 [31:0] $end
$var wire 32 c# in1 [31:0] $end
$var wire 1 d# select $end
$var wire 32 e# out [31:0] $end
$upscope $end
$scope module second $end
$var wire 32 f# in0 [31:0] $end
$var wire 32 g# in1 [31:0] $end
$var wire 1 h# select $end
$var wire 32 i# out [31:0] $end
$upscope $end
$upscope $end
$scope module second $end
$var wire 32 j# in0 [31:0] $end
$var wire 32 k# in1 [31:0] $end
$var wire 1 l# select $end
$var wire 32 m# out [31:0] $end
$upscope $end
$upscope $end
$scope module second $end
$var wire 32 n# in0 [31:0] $end
$var wire 32 o# in1 [31:0] $end
$var wire 32 p# in2 [31:0] $end
$var wire 32 q# in3 [31:0] $end
$var wire 2 r# select [1:0] $end
$var wire 32 s# w2 [31:0] $end
$var wire 32 t# w1 [31:0] $end
$var wire 32 u# out [31:0] $end
$scope module first_bottom $end
$var wire 32 v# in0 [31:0] $end
$var wire 32 w# in1 [31:0] $end
$var wire 1 x# select $end
$var wire 32 y# out [31:0] $end
$upscope $end
$scope module first_top $end
$var wire 32 z# in0 [31:0] $end
$var wire 32 {# in1 [31:0] $end
$var wire 1 |# select $end
$var wire 32 }# out [31:0] $end
$upscope $end
$scope module second $end
$var wire 32 ~# in0 [31:0] $end
$var wire 32 !$ in1 [31:0] $end
$var wire 1 "$ select $end
$var wire 32 #$ out [31:0] $end
$upscope $end
$upscope $end
$upscope $end
$upscope $end
$enddefinitions $end
$comment Show the parameter values. $end
$dumpall
$end
#0
$dumpvars
b0 #$
0"$
b10000 !$
b0 ~#
b0 }#
0|#
b1000 {#
b0 z#
b10000 y#
0x#
b11000 w#
b10000 v#
b0 u#
b0 t#
b10000 s#
b0 r#
b11000 q#
b10000 p#
b1000 o#
b0 n#
b1000 m#
0l#
b1100 k#
b1000 j#
b1000 i#
0h#
b1010 g#
b1000 f#
b1000 e#
0d#
b1001 c#
b1000 b#
b1010 a#
0`#
b1011 _#
b1010 ^#
b1000 ]#
b1000 \#
b1010 [#
b0 Z#
b1011 Y#
b1010 X#
b1001 W#
b1000 V#
b1100 U#
0T#
b1110 S#
b1100 R#
b1100 Q#
0P#
b1101 O#
b1100 N#
b1110 M#
0L#
b1111 K#
b1110 J#
b1100 I#
b1100 H#
b1110 G#
b0 F#
b1111 E#
b1110 D#
b1101 C#
b1100 B#
b1000 A#
b1000 @#
b1100 ?#
b0 >#
b1111 =#
b1110 <#
b1101 ;#
b1100 :#
b1011 9#
b1010 8#
b1001 7#
b1000 6#
b10000 5#
04#
b10100 3#
b10000 2#
b10000 1#
00#
b10010 /#
b10000 .#
b10000 -#
0,#
b10001 +#
b10000 *#
b10010 )#
0(#
b10011 '#
b10010 &#
b10000 %#
b10000 $#
b10010 ##
b0 "#
b10011 !#
b10010 ~"
b10001 }"
b10000 |"
b10100 {"
0z"
b10110 y"
b10100 x"
b10100 w"
0v"
b10101 u"
b10100 t"
b10110 s"
0r"
b10111 q"
b10110 p"
b10100 o"
b10100 n"
b10110 m"
b0 l"
b10111 k"
b10110 j"
b10101 i"
b10100 h"
b10000 g"
b10000 f"
b10100 e"
b0 d"
b10111 c"
b10110 b"
b10101 a"
b10100 `"
b10011 _"
b10010 ^"
b10001 ]"
b10000 \"
b0 ["
0Z"
b100 Y"
b0 X"
b0 W"
0V"
b10 U"
b0 T"
b0 S"
0R"
b1 Q"
b0 P"
b10 O"
0N"
b11 M"
b10 L"
b0 K"
b0 J"
b10 I"
b0 H"
b11 G"
b10 F"
b1 E"
b0 D"
b100 C"
0B"
b110 A"
b100 @"
b100 ?"
0>"
b101 ="
b100 <"
b110 ;"
0:"
b111 9"
b110 8"
b100 7"
b100 6"
b110 5"
b0 4"
b111 3"
b110 2"
b101 1"
b100 0"
b0 /"
b0 ."
b100 -"
b0 ,"
b111 +"
b110 *"
b101 )"
b100 ("
b11 '"
b10 &"
b1 %"
b0 $"
b11000 #"
0""
b11100 !"
b11000 ~
b11000 }
0|
b11010 {
b11000 z
b11000 y
0x
b11001 w
b11000 v
b11010 u
0t
b11011 s
b11010 r
b11000 q
b11000 p
b11010 o
b0 n
b11011 m
b11010 l
b11001 k
b11000 j
b11100 i
0h
b11110 g
b11100 f
b11100 e
0d
b11101 c
b11100 b
b11110 a
0`
b11111 _
b11110 ^
b11100 ]
b11100 \
b11110 [
b0 Z
b11111 Y
b11110 X
b11101 W
b11100 V
b11000 U
b11000 T
b11100 S
b0 R
b11111 Q
b11110 P
b11101 O
b11100 N
b11011 M
b11010 L
b11001 K
b11000 J
b0 I
b0 H
b1000 G
b10000 F
b11000 E
b0 D
b1001 C
b1000 B
b111 A
b110 @
b101 ?
b100 >
b11111 =
b11110 <
b11 ;
b11101 :
b11100 9
b11011 8
b11010 7
b11001 6
b11000 5
b10111 4
b10110 3
b10101 2
b10100 1
b10 0
b10011 /
b10010 .
b10001 -
b10000 ,
b1111 +
b1110 *
b1101 )
b1100 (
b1011 '
b1010 &
b1 %
b0 $
b0 #
b0 "
b0 !
$end
#200
b1 "
b1 I
b1 u#
b1 #$
b1 t#
b1 }#
b1 ~#
b10001 s#
b10001 y#
b10001 !$
b1 H
b1 /"
b1 ["
b1 n#
b1 z#
b1001 G
b1001 A#
b1001 m#
b1001 o#
b1001 {#
b10001 F
b10001 g"
b10001 5#
b10001 p#
b10001 v#
b11001 E
b11001 U
b11001 #"
b11001 q#
b11001 w#
b1 ."
b1 K"
b1 W"
b1 X"
b101 -"
b101 7"
b101 C"
b101 Y"
b1001 @#
b1001 ]#
b1001 i#
b1001 j#
b1101 ?#
b1101 I#
b1101 U#
b1101 k#
b10001 f"
b10001 %#
b10001 1#
b10001 2#
b10101 e"
b10101 o"
b10101 {"
b10101 3#
b11001 T
b11001 q
b11001 }
b11001 ~
b11101 S
b11101 ]
b11101 i
b11101 !"
b1 J"
b1 S"
b1 T"
b11 I"
b11 O"
b11 U"
b101 6"
b101 ?"
b101 @"
b111 5"
b111 ;"
b111 A"
b1001 \#
b1001 e#
b1001 f#
b1011 [#
b1011 a#
b1011 g#
b1101 H#
b1101 Q#
b1101 R#
b1111 G#
b1111 M#
b1111 S#
b10001 $#
b10001 -#
b10001 .#
b10011 ##
b10011 )#
b10011 /#
b10101 n"
b10101 w"
b10101 x"
b10111 m"
b10111 s"
b10111 y"
b11001 p
b11001 y
b11001 z
b11011 o
b11011 u
b11011 {
b11101 \
b11101 e
b11101 f
b11111 [
b11111 a
b11111 g
1R"
1N"
1>"
1:"
1d#
1`#
1P#
1L#
1,#
1(#
1v"
1r"
1x
1t
1d
1`
b1 H"
b1 4"
b1 Z#
b1 F#
b1 "#
b1 l"
b1 n
b1 Z
b1 ,"
b1 >#
b1 d"
b1 R
b1 !
b1 D
b1 #
#400
b10 "
b10 I
b10 u#
b10 #$
b10 t#
b10 }#
b10 ~#
b10010 s#
b10010 y#
b10010 !$
b10 H
b10 /"
b10 ["
b10 n#
b10 z#
b1010 G
b1010 A#
b1010 m#
b1010 o#
b1010 {#
b10010 F
b10010 g"
b10010 5#
b10010 p#
b10010 v#
b11010 E
b11010 U
b11010 #"
b11010 q#
b11010 w#
b0 J"
b0 S"
b0 T"
b10 I"
b10 O"
b10 U"
b10 ."
b10 K"
b10 W"
b10 X"
b100 6"
b100 ?"
b100 @"
b110 5"
b110 ;"
b110 A"
b110 -"
b110 7"
b110 C"
b110 Y"
b1000 \#
b1000 e#
b1000 f#
b1010 [#
b1010 a#
b1010 g#
b1010 @#
b1010 ]#
b1010 i#
b1010 j#
b1100 H#
b1100 Q#
b1100 R#
b1110 G#
b1110 M#
b1110 S#
b1110 ?#
b1110 I#
b1110 U#
b1110 k#
b10000 $#
b10000 -#
b10000 .#
b10010 ##
b10010 )#
b10010 /#
b10010 f"
b10010 %#
b10010 1#
b10010 2#
b10100 n"
b10100 w"
b10100 x"
b10110 m"
b10110 s"
b10110 y"
b10110 e"
b10110 o"
b10110 {"
b10110 3#
b11000 p
b11000 y
b11000 z
b11010 o
b11010 u
b11010 {
b11010 T
b11010 q
b11010 }
b11010 ~
b11100 \
b11100 e
b11100 f
b11110 [
b11110 a
b11110 g
b11110 S
b11110 ]
b11110 i
b11110 !"
0R"
0N"
1V"
0>"
0:"
1B"
0d#
0`#
1h#
0P#
0L#
1T#
0,#
0(#
10#
0v"
0r"
1z"
0x
0t
1|
0d
0`
1h
b10 H"
b10 4"
b10 Z#
b10 F#
b10 "#
b10 l"
b10 n
b10 Z
b10 ,"
b10 >#
b10 d"
b10 R
b10 !
b10 D
b10 #
#600
b11 "
b11 I
b11 u#
b11 #$
b11 t#
b11 }#
b11 ~#
b10011 s#
b10011 y#
b10011 !$
b11 H
b11 /"
b11 ["
b11 n#
b11 z#
b1011 G
b1011 A#
b1011 m#
b1011 o#
b1011 {#
b10011 F
b10011 g"
b10011 5#
b10011 p#
b10011 v#
b11011 E
b11011 U
b11011 #"
b11011 q#
b11011 w#
b11 ."
b11 K"
b11 W"
b11 X"
b111 -"
b111 7"
b111 C"
b111 Y"
b1011 @#
b1011 ]#
b1011 i#
b1011 j#
b1111 ?#
b1111 I#
b1111 U#
b1111 k#
b10011 f"
b10011 %#
b10011 1#
b10011 2#
b10111 e"
b10111 o"
b10111 {"
b10111 3#
b11011 T
b11011 q
b11011 }
b11011 ~
b11111 S
b11111 ]
b11111 i
b11111 !"
b1 J"
b1 S"
b1 T"
b11 I"
b11 O"
b11 U"
b101 6"
b101 ?"
b101 @"
b111 5"
b111 ;"
b111 A"
b1001 \#
b1001 e#
b1001 f#
b1011 [#
b1011 a#
b1011 g#
b1101 H#
b1101 Q#
b1101 R#
b1111 G#
b1111 M#
b1111 S#
b10001 $#
b10001 -#
b10001 .#
b10011 ##
b10011 )#
b10011 /#
b10101 n"
b10101 w"
b10101 x"
b10111 m"
b10111 s"
b10111 y"
b11001 p
b11001 y
b11001 z
b11011 o
b11011 u
b11011 {
b11101 \
b11101 e
b11101 f
b11111 [
b11111 a
b11111 g
1R"
1N"
1>"
1:"
1d#
1`#
1P#
1L#
1,#
1(#
1v"
1r"
1x
1t
1d
1`
b11 H"
b11 4"
b11 Z#
b11 F#
b11 "#
b11 l"
b11 n
b11 Z
b11 ,"
b11 >#
b11 d"
b11 R
b11 !
b11 D
b11 #
#800
b100 "
b100 I
b100 u#
b100 #$
b0 J"
b0 S"
b0 T"
b10 I"
b10 O"
b10 U"
b0 ."
b0 K"
b0 W"
b0 X"
b100 6"
b100 ?"
b100 @"
b110 5"
b110 ;"
b110 A"
b100 -"
b100 7"
b100 C"
b100 Y"
b100 t#
b100 }#
b100 ~#
b1000 \#
b1000 e#
b1000 f#
b1010 [#
b1010 a#
b1010 g#
b1000 @#
b1000 ]#
b1000 i#
b1000 j#
b1100 H#
b1100 Q#
b1100 R#
b1110 G#
b1110 M#
b1110 S#
b1100 ?#
b1100 I#
b1100 U#
b1100 k#
b10000 $#
b10000 -#
b10000 .#
b10010 ##
b10010 )#
b10010 /#
b10000 f"
b10000 %#
b10000 1#
b10000 2#
b10100 n"
b10100 w"
b10100 x"
b10110 m"
b10110 s"
b10110 y"
b10100 e"
b10100 o"
b10100 {"
b10100 3#
b10100 s#
b10100 y#
b10100 !$
b11000 p
b11000 y
b11000 z
b11010 o
b11010 u
b11010 {
b11000 T
b11000 q
b11000 }
b11000 ~
b11100 \
b11100 e
b11100 f
b11110 [
b11110 a
b11110 g
b11100 S
b11100 ]
b11100 i
b11100 !"
0R"
0N"
0V"
0>"
0:"
0B"
b100 H
b100 /"
b100 ["
b100 n#
b100 z#
0d#
0`#
0h#
0P#
0L#
0T#
b1100 G
b1100 A#
b1100 m#
b1100 o#
b1100 {#
0,#
0(#
00#
0v"
0r"
0z"
b10100 F
b10100 g"
b10100 5#
b10100 p#
b10100 v#
0x
0t
0|
0d
0`
0h
b11100 E
b11100 U
b11100 #"
b11100 q#
b11100 w#
b0 H"
b0 4"
1Z"
b0 Z#
b0 F#
1l#
b0 "#
b0 l"
14#
b0 n
b0 Z
1""
b100 ,"
b100 >#
b100 d"
b100 R
b100 !
b100 D
b100 #
#1000
b101 "
b101 I
b101 u#
b101 #$
b101 t#
b101 }#
b101 ~#
b10101 s#
b10101 y#
b10101 !$
b101 H
b101 /"
b101 ["
b101 n#
b101 z#
b1101 G
b1101 A#
b1101 m#
b1101 o#
b1101 {#
b10101 F
b10101 g"
b10101 5#
b10101 p#
b10101 v#
b11101 E
b11101 U
b11101 #"
b11101 q#
b11101 w#
b1 ."
b1 K"
b1 W"
b1 X"
b101 -"
b101 7"
b101 C"
b101 Y"
b1001 @#
b1001 ]#
b1001 i#
b1001 j#
b1101 ?#
b1101 I#
b1101 U#
b1101 k#
b10001 f"
b10001 %#
b10001 1#
b10001 2#
b10101 e"
b10101 o"
b10101 {"
b10101 3#
b11001 T
b11001 q
b11001 }
b11001 ~
b11101 S
b11101 ]
b11101 i
b11101 !"
b1 J"
b1 S"
b1 T"
b11 I"
b11 O"
b11 U"
b101 6"
b101 ?"
b101 @"
b111 5"
b111 ;"
b111 A"
b1001 \#
b1001 e#
b1001 f#
b1011 [#
b1011 a#
b1011 g#
b1101 H#
b1101 Q#
b1101 R#
b1111 G#
b1111 M#
b1111 S#
b10001 $#
b10001 -#
b10001 .#
b10011 ##
b10011 )#
b10011 /#
b10101 n"
b10101 w"
b10101 x"
b10111 m"
b10111 s"
b10111 y"
b11001 p
b11001 y
b11001 z
b11011 o
b11011 u
b11011 {
b11101 \
b11101 e
b11101 f
b11111 [
b11111 a
b11111 g
1R"
1N"
1>"
1:"
1d#
1`#
1P#
1L#
1,#
1(#
1v"
1r"
1x
1t
1d
1`
b1 H"
b1 4"
b1 Z#
b1 F#
b1 "#
b1 l"
b1 n
b1 Z
b101 ,"
b101 >#
b101 d"
b101 R
b101 !
b101 D
b101 #
#1200
b110 "
b110 I
b110 u#
b110 #$
b110 t#
b110 }#
b110 ~#
b10110 s#
b10110 y#
b10110 !$
b110 H
b110 /"
b110 ["
b110 n#
b110 z#
b1110 G
b1110 A#
b1110 m#
b1110 o#
b1110 {#
b10110 F
b10110 g"
b10110 5#
b10110 p#
b10110 v#
b11110 E
b11110 U
b11110 #"
b11110 q#
b11110 w#
b0 J"
b0 S"
b0 T"
b10 I"
b10 O"
b10 U"
b10 ."
b10 K"
b10 W"
b10 X"
b100 6"
b100 ?"
b100 @"
b110 5"
b110 ;"
b110 A"
b110 -"
b110 7"
b110 C"
b110 Y"
b1000 \#
b1000 e#
b1000 f#
b1010 [#
b1010 a#
b1010 g#
b1010 @#
b1010 ]#
b1010 i#
b1010 j#
b1100 H#
b1100 Q#
b1100 R#
b1110 G#
b1110 M#
b1110 S#
b1110 ?#
b1110 I#
b1110 U#
b1110 k#
b10000 $#
b10000 -#
b10000 .#
b10010 ##
b10010 )#
b10010 /#
b10010 f"
b10010 %#
b10010 1#
b10010 2#
b10100 n"
b10100 w"
b10100 x"
b10110 m"
b10110 s"
b10110 y"
b10110 e"
b10110 o"
b10110 {"
b10110 3#
b11000 p
b11000 y
b11000 z
b11010 o
b11010 u
b11010 {
b11010 T
b11010 q
b11010 }
b11010 ~
b11100 \
b11100 e
b11100 f
b11110 [
b11110 a
b11110 g
b11110 S
b11110 ]
b11110 i
b11110 !"
0R"
0N"
1V"
0>"
0:"
1B"
0d#
0`#
1h#
0P#
0L#
1T#
0,#
0(#
10#
0v"
0r"
1z"
0x
0t
1|
0d
0`
1h
b10 H"
b10 4"
b10 Z#
b10 F#
b10 "#
b10 l"
b10 n
b10 Z
b110 ,"
b110 >#
b110 d"
b110 R
b110 !
b110 D
b110 #
#1400
b111 "
b111 I
b111 u#
b111 #$
b111 t#
b111 }#
b111 ~#
b10111 s#
b10111 y#
b10111 !$
b111 H
b111 /"
b111 ["
b111 n#
b111 z#
b1111 G
b1111 A#
b1111 m#
b1111 o#
b1111 {#
b10111 F
b10111 g"
b10111 5#
b10111 p#
b10111 v#
b11111 E
b11111 U
b11111 #"
b11111 q#
b11111 w#
b11 ."
b11 K"
b11 W"
b11 X"
b111 -"
b111 7"
b111 C"
b111 Y"
b1011 @#
b1011 ]#
b1011 i#
b1011 j#
b1111 ?#
b1111 I#
b1111 U#
b1111 k#
b10011 f"
b10011 %#
b10011 1#
b10011 2#
b10111 e"
b10111 o"
b10111 {"
b10111 3#
b11011 T
b11011 q
b11011 }
b11011 ~
b11111 S
b11111 ]
b11111 i
b11111 !"
b1 J"
b1 S"
b1 T"
b11 I"
b11 O"
b11 U"
b101 6"
b101 ?"
b101 @"
b111 5"
b111 ;"
b111 A"
b1001 \#
b1001 e#
b1001 f#
b1011 [#
b1011 a#
b1011 g#
b1101 H#
b1101 Q#
b1101 R#
b1111 G#
b1111 M#
b1111 S#
b10001 $#
b10001 -#
b10001 .#
b10011 ##
b10011 )#
b10011 /#
b10101 n"
b10101 w"
b10101 x"
b10111 m"
b10111 s"
b10111 y"
b11001 p
b11001 y
b11001 z
b11011 o
b11011 u
b11011 {
b11101 \
b11101 e
b11101 f
b11111 [
b11111 a
b11111 g
1R"
1N"
1>"
1:"
1d#
1`#
1P#
1L#
1,#
1(#
1v"
1r"
1x
1t
1d
1`
b11 H"
b11 4"
b11 Z#
b11 F#
b11 "#
b11 l"
b11 n
b11 Z
b111 ,"
b111 >#
b111 d"
b111 R
b111 !
b111 D
b111 #
